{
  "name": "butler",
  "title": "Butler UX Suite",
  "description": "A helpful guide and suite of UX changes to make FVTT a little more comfortable for new players.",
  "author": "Anathema",
  "authors": [
    {
      "name": "Anathema",
      "url": "https://gitlab.com/anathemamask/butler-fvtt/"
    }
  ],
  "version": "0.1.1",
  "minimumCoreVersion": "0.6.0",
  "compatibleCoreVersion": "0.7.9",
  "url": "https://gitlab.com/anathemamask/butler-fvtt/",
  "manifest": "https://gitlab.com/anathemamask/butler-fvtt/-/raw/master/module.json",
  "download": "https://gitlab.com/anathemamask/butler-fvtt/-/archive/master/butler-fvtt-master.zip",
  "readme": "https://gitlab.com/anathemamask/butler-fvtt/-/raw/master/readme.md",
  "changelog": "https://gitlab.com/anathemamask/butler-fvtt/-/raw/master/changelog.md",
  "esmodules": [
    "./modules/init.js"
  ],
  "styles": [
    "./styles/style.css"
  ]
}
